%!PS-Adobe-2.0 EPSF-1.2
%%Creator: MATLAB, The Mathworks, Inc. Version 7.9.0.529 (R2009b). Operating System: Linux 3.13.0-35-generic #62-Ubuntu SMP Fri Aug 15 01:58:42 UTC 2014 x86_64.
%%Title: figs/contributionNum2.eps
%%CreationDate: 09/29/2014  21:53:02
%%DocumentNeededFonts: Helvetica
%%DocumentProcessColors: Cyan Magenta Yellow Black
%%Extensions: CMYK
%%Pages: 1
%%BoundingBox:   132   227   456   558
%%EndComments

%%BeginProlog
% MathWorks dictionary
/MathWorks 160 dict begin
% definition operators
/bdef {bind def} bind def
/ldef {load def} bind def
/xdef {exch def} bdef
/xstore {exch store} bdef
% operator abbreviations
/c  /clip ldef
/cc /concat ldef
/cp /closepath ldef
/gr /grestore ldef
/gs /gsave ldef
/mt /moveto ldef
/np /newpath ldef
/cm /currentmatrix ldef
/sm /setmatrix ldef
/rm /rmoveto ldef
/rl /rlineto ldef
/s {show newpath} bdef
/sc {setcmykcolor} bdef
/sr /setrgbcolor ldef
/sg /setgray ldef
/w /setlinewidth ldef
/j /setlinejoin ldef
/cap /setlinecap ldef
/rc {rectclip} bdef
/rf {rectfill} bdef
% page state control
/pgsv () def
/bpage {/pgsv save def} bdef
/epage {pgsv restore} bdef
/bplot /gsave ldef
/eplot {stroke grestore} bdef
% orientation switch
/portraitMode 0 def /landscapeMode 1 def /rotateMode 2 def
% coordinate system mappings
/dpi2point 0 def
% font control
/FontSize 0 def
/FMS {/FontSize xstore findfont [FontSize 0 0 FontSize neg 0 0]
  makefont setfont} bdef
/reencode {exch dup where {pop load} {pop StandardEncoding} ifelse
  exch dup 3 1 roll findfont dup length dict begin
  { 1 index /FID ne {def}{pop pop} ifelse } forall
  /Encoding exch def currentdict end definefont pop} bdef
/isroman {findfont /CharStrings get /Agrave known} bdef
/FMSR {3 1 roll 1 index dup isroman {reencode} {pop pop} ifelse
  exch FMS} bdef
/csm {1 dpi2point div -1 dpi2point div scale neg translate
 dup landscapeMode eq {pop -90 rotate}
  {rotateMode eq {90 rotate} if} ifelse} bdef
% line types: solid, dotted, dashed, dotdash
/SO { [] 0 setdash } bdef
/DO { [.5 dpi2point mul 4 dpi2point mul] 0 setdash } bdef
/DA { [6 dpi2point mul] 0 setdash } bdef
/DD { [.5 dpi2point mul 4 dpi2point mul 6 dpi2point mul 4
  dpi2point mul] 0 setdash } bdef
% macros for lines and objects
/L {lineto stroke} bdef
/MP {3 1 roll moveto 1 sub {rlineto} repeat} bdef
/AP {{rlineto} repeat} bdef
/PDlw -1 def
/W {/PDlw currentlinewidth def setlinewidth} def
/PP {closepath eofill} bdef
/DP {closepath stroke} bdef
/MR {4 -2 roll moveto dup  0 exch rlineto exch 0 rlineto
  neg 0 exch rlineto closepath} bdef
/FR {MR stroke} bdef
/PR {MR fill} bdef
/L1i {{currentfile picstr readhexstring pop} image} bdef
/tMatrix matrix def
/MakeOval {newpath tMatrix currentmatrix pop translate scale
0 0 1 0 360 arc tMatrix setmatrix} bdef
/FO {MakeOval stroke} bdef
/PO {MakeOval fill} bdef
/PD {currentlinewidth 2 div 0 360 arc fill
   PDlw -1 eq not {PDlw w /PDlw -1 def} if} def
/FA {newpath tMatrix currentmatrix pop translate scale
  0 0 1 5 -2 roll arc tMatrix setmatrix stroke} bdef
/PA {newpath tMatrix currentmatrix pop	translate 0 0 moveto scale
  0 0 1 5 -2 roll arc closepath tMatrix setmatrix fill} bdef
/FAn {newpath tMatrix currentmatrix pop translate scale
  0 0 1 5 -2 roll arcn tMatrix setmatrix stroke} bdef
/PAn {newpath tMatrix currentmatrix pop translate 0 0 moveto scale
  0 0 1 5 -2 roll arcn closepath tMatrix setmatrix fill} bdef
/vradius 0 def /hradius 0 def /lry 0 def
/lrx 0 def /uly 0 def /ulx 0 def /rad 0 def
/MRR {/vradius xdef /hradius xdef /lry xdef /lrx xdef /uly xdef
  /ulx xdef newpath tMatrix currentmatrix pop ulx hradius add uly
  vradius add translate hradius vradius scale 0 0 1 180 270 arc 
  tMatrix setmatrix lrx hradius sub uly vradius add translate
  hradius vradius scale 0 0 1 270 360 arc tMatrix setmatrix
  lrx hradius sub lry vradius sub translate hradius vradius scale
  0 0 1 0 90 arc tMatrix setmatrix ulx hradius add lry vradius sub
  translate hradius vradius scale 0 0 1 90 180 arc tMatrix setmatrix
  closepath} bdef
/FRR {MRR stroke } bdef
/PRR {MRR fill } bdef
/MlrRR {/lry xdef /lrx xdef /uly xdef /ulx xdef /rad lry uly sub 2 div def
  newpath tMatrix currentmatrix pop ulx rad add uly rad add translate
  rad rad scale 0 0 1 90 270 arc tMatrix setmatrix lrx rad sub lry rad
  sub translate rad rad scale 0 0 1 270 90 arc tMatrix setmatrix
  closepath} bdef
/FlrRR {MlrRR stroke } bdef
/PlrRR {MlrRR fill } bdef
/MtbRR {/lry xdef /lrx xdef /uly xdef /ulx xdef /rad lrx ulx sub 2 div def
  newpath tMatrix currentmatrix pop ulx rad add uly rad add translate
  rad rad scale 0 0 1 180 360 arc tMatrix setmatrix lrx rad sub lry rad
  sub translate rad rad scale 0 0 1 0 180 arc tMatrix setmatrix
  closepath} bdef
/FtbRR {MtbRR stroke } bdef
/PtbRR {MtbRR fill } bdef
/stri 6 array def /dtri 6 array def
/smat 6 array def /dmat 6 array def
/tmat1 6 array def /tmat2 6 array def /dif 3 array def
/asub {/ind2 exch def /ind1 exch def dup dup
  ind1 get exch ind2 get sub exch } bdef
/tri_to_matrix {
  2 0 asub 3 1 asub 4 0 asub 5 1 asub
  dup 0 get exch 1 get 7 -1 roll astore } bdef
/compute_transform {
  dmat dtri tri_to_matrix tmat1 invertmatrix 
  smat stri tri_to_matrix tmat2 concatmatrix } bdef
/ds {stri astore pop} bdef
/dt {dtri astore pop} bdef
/db {2 copy /cols xdef /rows xdef mul dup 3 mul string
  currentfile exch readhexstring pop
  dup 0 3 index getinterval /rbmap xdef
  dup 2 index dup getinterval /gbmap xdef
  1 index dup 2 mul exch getinterval /bbmap xdef pop pop}bdef
/it {gs np dtri aload pop moveto lineto lineto cp c
  cols rows 8 compute_transform 
  rbmap gbmap bbmap true 3 colorimage gr}bdef
/il {newpath moveto lineto stroke}bdef
currentdict end def
%%EndProlog

%%BeginSetup
MathWorks begin

0 cap

end
%%EndSetup

%%Page: 1 1
%%BeginPageSetup
%%PageBoundingBox:   132   227   456   558
MathWorks begin
bpage
%%EndPageSetup

%%BeginObject: obj1
bplot

/dpi2point 12 def
portraitMode 1512 6912 csm

   76   209  3884  3976 MR c np
86 dict begin %Colortable dictionary
/c0 { 0.000000 0.000000 0.000000 sr} bdef
/c1 { 1.000000 1.000000 1.000000 sr} bdef
/c2 { 0.900000 0.000000 0.000000 sr} bdef
/c3 { 0.000000 0.820000 0.000000 sr} bdef
/c4 { 0.000000 0.000000 0.800000 sr} bdef
/c5 { 0.910000 0.820000 0.320000 sr} bdef
/c6 { 1.000000 0.260000 0.820000 sr} bdef
/c7 { 0.000000 0.820000 0.820000 sr} bdef
c0
1 j
1 sg
   0    0 4321 4321 PR
6 w
0 3521 3348 0 0 -3521 562 3845 4 MP
PP
-3348 0 0 3521 3348 0 0 -3521 562 3845 5 MP stroke
4 w
DO
0 sg
 562 3845 mt  562  324 L
 562  324 mt  562  324 L
 958 3845 mt  958  324 L
 958  324 mt  958  324 L
1354 3845 mt 1354  324 L
1354  324 mt 1354  324 L
1750 3845 mt 1750  324 L
1750  324 mt 1750  324 L
2146 3845 mt 2146  324 L
2146  324 mt 2146  324 L
2543 3845 mt 2543  324 L
2543  324 mt 2543  324 L
2939 3845 mt 2939  324 L
2939  324 mt 2939  324 L
3335 3845 mt 3335  324 L
3335  324 mt 3335  324 L
3731 3845 mt 3731  324 L
3731  324 mt 3731  324 L
 562 3845 mt 3910 3845 L
3910 3845 mt 3910 3845 L
 562 3492 mt 3910 3492 L
3910 3492 mt 3910 3492 L
 562 3140 mt 3910 3140 L
3910 3140 mt 3910 3140 L
 562 2788 mt 3910 2788 L
3910 2788 mt 3910 2788 L
 562 2436 mt 3910 2436 L
3910 2436 mt 3910 2436 L
 562 2084 mt 3910 2084 L
3910 2084 mt 3910 2084 L
 562 1732 mt 3910 1732 L
3910 1732 mt 3910 1732 L
 562 1380 mt 3910 1380 L
3910 1380 mt 3910 1380 L
 562 1028 mt 3910 1028 L
3910 1028 mt 3910 1028 L
 562  676 mt 3910  676 L
3910  676 mt 3910  676 L
 562  324 mt 3910  324 L
3910  324 mt 3910  324 L
SO
6 w
 562 3845 mt 3910 3845 L
 562 3845 mt  562  324 L
 562 3845 mt  562 3809 L
%%IncludeResource: font Helvetica
/Helvetica /ISOLatin1Encoding 120 FMSR

 529 3990 mt 
(0) s
 958 3845 mt  958 3809 L
 892 3990 mt 
(20) s
1354 3845 mt 1354 3809 L
1288 3990 mt 
(40) s
1750 3845 mt 1750 3809 L
1684 3990 mt 
(60) s
2146 3845 mt 2146 3809 L
2080 3990 mt 
(80) s
2543 3845 mt 2543 3809 L
2443 3990 mt 
(100) s
2939 3845 mt 2939 3809 L
2839 3990 mt 
(120) s
3335 3845 mt 3335 3809 L
3235 3990 mt 
(140) s
3731 3845 mt 3731 3809 L
3631 3990 mt 
(160) s
 562 3845 mt  597 3845 L
 461 3889 mt 
(0) s
 562 3492 mt  597 3492 L
 294 3536 mt 
(0.01) s
 562 3140 mt  597 3140 L
 294 3184 mt 
(0.02) s
 562 2788 mt  597 2788 L
 294 2832 mt 
(0.03) s
 562 2436 mt  597 2436 L
 294 2480 mt 
(0.04) s
 562 2084 mt  597 2084 L
 294 2128 mt 
(0.05) s
 562 1732 mt  597 1732 L
 294 1776 mt 
(0.06) s
 562 1380 mt  597 1380 L
 294 1424 mt 
(0.07) s
 562 1028 mt  597 1028 L
 294 1072 mt 
(0.08) s
 562  676 mt  597  676 L
 294  720 mt 
(0.09) s
 562  324 mt  597  324 L
 361  368 mt 
(0.1) s
gs 562 324 3349 3522 MR c np
24 w
/c8 { 0.000000 1.000000 0.000000 sr} bdef
c8
20 234 20 233 19 234 20 0 20 0 20 -234 20 -233 19 -234 
20 0 20 0 20 0 20 234 19 233 20 234 20 350 20 349 
20 0 19 -349 20 -350 20 0 20 0 20 0 20 -234 19 -233 
20 -391 20 0 20 0 20 157 19 -157 20 -261 20 -262 20 0 
20 105 19 0 20 0 20 157 20 105 20 156 20 0 19 391 
20 0 20 -262 20 -495 20 -157 19 105 20 105 20 0 20 0 
20 390 19 157 20 390 20 -390 20 -157 20 -390 19 157 20 390 
20 740 20 234 20 -234 20 -845 19 -234 20 234 20 495 20 0 
20 -233 19 0 20 0 20 233 20 0 20 0 19 -233 20 -234 
20 -157 20 -156 20 0 20 156 19 391 20 233 20 0 20 0 
20 -233 19 -157 20 0 20 234 20 156 20 -495 19 -234 20 234 
20 845 20 234 20 -234 19 -740 20 -390 20 -157 20 390 20 157 
20 390 19 -390 20 -157 1572 2503 100 MP stroke
20 -390 20 0 20 0 19 -105 20 -105 20 157 20 495 20 262 
19 0 20 -391 20 -156 20 -157 20 -105 20 -105 19 0 20 0 
20 0 20 0 20 262 19 261 20 157 20 -157 20 0 20 0 
19 391 20 233 20 234 20 0 20 0 19 0 20 350 20 349 
20 0 20 -349 20 -350 19 -234 20 -233 20 -234 20 0 20 0 
19 0 20 234 20 233 20 234 20 0 19 0 20 -234 20 -233 
20 0 20 467 581 1722 51 MP stroke
gr

24 w
c8
0 sg
1911 4133 mt 
(Right to Left) s
 212 2365 mt  -90 rotate
(Probability) s
90 rotate
gs 562 324 3349 3522 MR c np
20 234 20 233 19 234 20 0 20 0 20 -234 20 -233 19 -234 
20 0 20 0 20 0 20 234 19 233 20 234 20 350 20 349 
20 0 19 -349 20 -350 20 0 20 0 20 0 20 -234 19 -233 
20 -391 20 0 20 0 20 157 19 -157 20 -261 20 -262 20 0 
20 105 19 0 20 0 20 157 20 105 20 156 20 0 19 391 
20 0 20 -262 20 -495 20 -157 19 105 20 105 20 0 20 0 
20 390 19 157 20 390 20 -390 20 -157 20 -390 19 157 20 390 
20 740 20 234 20 -234 20 -845 19 -234 20 234 20 495 20 0 
20 -233 19 0 20 0 20 233 20 0 20 0 19 -233 20 -234 
20 -157 20 -156 20 0 20 156 19 391 20 233 20 0 20 0 
20 -233 19 -157 20 0 20 234 20 156 20 -495 19 -234 20 234 
20 845 20 234 20 -234 19 -740 20 -390 20 -157 20 390 20 157 
20 390 19 -390 20 -157 1572 2503 100 MP stroke
20 -390 20 0 20 0 19 -105 20 -105 20 157 20 495 20 262 
19 0 20 -391 20 -156 20 -157 20 -105 20 -105 19 0 20 0 
20 0 20 0 20 262 19 261 20 157 20 -157 20 0 20 0 
19 391 20 233 20 234 20 0 20 0 19 0 20 350 20 349 
20 0 20 -349 20 -350 19 -234 20 -233 20 -234 20 0 20 0 
19 0 20 234 20 233 20 234 20 0 19 0 20 -234 20 -233 
20 0 20 467 581 1722 51 MP stroke
c8
20 186 19 187 20 187 20 0 20 0 20 -187 19 -187 20 -186 
20 0 20 0 20 0 19 186 20 187 20 187 20 279 20 279 
19 0 20 -279 20 -279 20 0 20 0 20 0 19 -187 20 -187 
20 -312 20 0 20 0 19 126 20 -126 20 -208 20 -209 20 0 
19 83 20 0 20 0 20 126 20 83 20 125 19 0 20 312 
20 0 20 -208 20 -396 19 -125 20 83 20 84 20 0 20 0 
19 312 20 125 20 312 20 -312 20 -125 19 -312 20 125 20 312 
20 591 20 187 20 -187 19 -674 20 -187 20 187 20 395 20 0 
19 -187 20 0 20 0 20 187 20 0 19 0 20 -187 20 -186 
20 -126 20 -125 20 0 19 125 20 312 20 187 20 0 20 0 
19 -187 20 -125 20 0 20 187 20 125 19 -395 20 -187 20 187 
20 674 20 187 19 -187 20 -591 20 -312 20 -125 20 312 20 125 
19 312 20 -312 20 -125 1552 2423 100 MP stroke
20 -312 20 0 19 0 20 -105 20 -104 20 78 20 346 19 183 
20 0 20 -273 20 -110 20 -109 20 -152 19 -152 20 -117 20 0 
20 0 20 0 19 86 20 87 20 52 20 -157 20 -157 19 -156 
20 0 20 0 20 0 20 0 19 0 20 0 20 0 20 0 
20 0 20 0 19 0 20 0 20 0 20 0 20 0 19 0 
20 234 20 234 20 233 20 0 19 0 20 -77 20 -77 20 156 
20 468 581 2324 50 MP stroke
6 w
gr

6 w
c8

end %%Color Dict

eplot
%%EndObject

epage
end

showpage

%%Trailer
%%EOF
